{
  "name": "test-main",
  "alias": ["test"],
  "public": true,
  "version": 2,
  "builds": [
    {
      "src": "src/index.js",
      "use": "@now/node-server",
      "config": {
        "maxLambdaSize": "50mb",
        "includeFiles": ["public/**"]
      }
    }
  ],
  "routes": [
    { "src": "/(.*)", "dest": "src/index.js" }
  ]
}
